 1.0965e-08 0.0000e+00
 1.3183e-08 0.0000e+00
 1.5849e-08 0.0000e+00
 1.9055e-08 0.0000e+00
 2.2909e-08 0.0000e+00
 2.7542e-08 0.0000e+00
 3.3113e-08 0.0000e+00
 3.9811e-08 0.0000e+00
 4.7863e-08 0.0000e+00
 5.7544e-08 9.1536e-07
 6.9183e-08 0.0000e+00
 8.3176e-08 0.0000e+00
 1.0000e-07 0.0000e+00
 1.2023e-07 0.0000e+00
 1.4454e-07 0.0000e+00
 1.7378e-07 0.0000e+00
 2.0893e-07 0.0000e+00
 2.5119e-07 0.0000e+00
 3.0200e-07 0.0000e+00
 3.6308e-07 0.0000e+00
 4.3652e-07 0.0000e+00
 5.2481e-07 0.0000e+00
 6.3096e-07 0.0000e+00
 7.5858e-07 0.0000e+00
 9.1201e-07 0.0000e+00
 1.0965e-06 0.0000e+00
 1.3183e-06 0.0000e+00
 1.5849e-06 0.0000e+00
 1.9055e-06 0.0000e+00
 2.2909e-06 0.0000e+00
 2.7542e-06 0.0000e+00
 3.3113e-06 0.0000e+00
 3.9811e-06 0.0000e+00
 4.7863e-06 0.0000e+00
 5.7544e-06 0.0000e+00
 6.9183e-06 0.0000e+00
 8.3176e-06 0.0000e+00
 1.0000e-05 0.0000e+00
 1.2023e-05 0.0000e+00
 1.4454e-05 2.6099e-07
 1.7378e-05 1.7559e-07
 2.0893e-05 1.2873e-07
 2.5119e-05 4.6922e-07
 3.0200e-05 4.7447e-07
 3.6308e-05 2.5886e-06
 4.3652e-05 3.6036e-06
 5.2481e-05 5.8517e-06
 6.3096e-05 1.1383e-05
 7.5858e-05 1.7569e-05
 9.1201e-05 1.8330e-05
 1.0965e-04 3.9835e-05
 1.3183e-04 5.3039e-05
 1.5849e-04 9.9497e-05
 1.9055e-04 1.9531e-04
 2.2909e-04 2.3016e-04
 2.7542e-04 3.2551e-04
 3.3113e-04 4.6691e-04
 3.9811e-04 6.0699e-04
 4.7863e-04 8.8527e-04
 5.7544e-04 1.0804e-03
 6.9183e-04 1.6275e-03
 8.3176e-04 2.0340e-03
 1.0000e-03 2.7030e-03
 1.2023e-03 3.6284e-03
 1.4454e-03 4.9013e-03
 1.7378e-03 6.1156e-03
 2.0893e-03 7.3711e-03
 2.5119e-03 9.3295e-03
 3.0200e-03 1.1934e-02
 3.6308e-03 1.5623e-02
 4.3652e-03 1.9053e-02
 5.2481e-03 2.4462e-02
 6.3096e-03 3.1014e-02
 7.5858e-03 4.1170e-02
 9.1201e-03 5.0869e-02
 1.0965e-02 6.7084e-02
 1.3183e-02 8.8771e-02
 1.5849e-02 1.2726e-01
 1.9055e-02 1.7153e-01
 2.2909e-02 2.3866e-01
 2.7542e-02 3.3363e-01
 3.3113e-02 4.6771e-01
 3.9811e-02 6.0785e-01
 4.7863e-02 7.8582e-01
 5.7544e-02 9.3475e-01
 6.9183e-02 9.8131e-01
 8.3176e-02 9.3833e-01
 1.0000e-01 8.3234e-01
 1.2023e-01 6.2236e-01
 1.4454e-01 4.0555e-01
 1.7378e-01 2.0610e-01
 2.0893e-01 1.1871e-01
 2.5119e-01 4.3196e-02
 3.0200e-01 2.1996e-02
 3.6308e-01 5.9855e-03
 4.3652e-01 2.1917e-03
 5.2481e-01 3.9531e-03
 6.3096e-01 5.8339e-04
 7.5858e-01 0.0000e+00
 9.1201e-01 0.0000e+00
