 1.0965e-10 0.0000e+00
 1.3183e-10 0.0000e+00
 1.5849e-10 0.0000e+00
 1.9055e-10 0.0000e+00
 2.2909e-10 0.0000e+00
 2.7542e-10 0.0000e+00
 3.3113e-10 0.0000e+00
 3.9811e-10 0.0000e+00
 4.7863e-10 0.0000e+00
 5.7544e-10 0.0000e+00
 6.9183e-10 0.0000e+00
 8.3176e-10 0.0000e+00
 1.0000e-09 0.0000e+00
 1.2023e-09 0.0000e+00
 1.4454e-09 0.0000e+00
 1.7378e-09 0.0000e+00
 2.0893e-09 0.0000e+00
 2.5119e-09 0.0000e+00
 3.0200e-09 0.0000e+00
 3.6308e-09 0.0000e+00
 4.3652e-09 0.0000e+00
 5.2481e-09 0.0000e+00
 6.3096e-09 0.0000e+00
 7.5858e-09 0.0000e+00
 9.1201e-09 0.0000e+00
 1.0965e-08 0.0000e+00
 1.3183e-08 0.0000e+00
 1.5849e-08 0.0000e+00
 1.9055e-08 0.0000e+00
 2.2909e-08 0.0000e+00
 2.7542e-08 0.0000e+00
 3.3113e-08 0.0000e+00
 3.9811e-08 0.0000e+00
 4.7863e-08 0.0000e+00
 5.7544e-08 1.8823e-06
 6.9183e-08 8.0475e-07
 8.3176e-08 0.0000e+00
 1.0000e-07 1.3328e-06
 1.2023e-07 8.9388e-07
 1.4454e-07 1.5450e-06
 1.7378e-07 0.0000e+00
 2.0893e-07 0.0000e+00
 2.5119e-07 8.4849e-07
 3.0200e-07 3.4799e-06
 3.6308e-07 0.0000e+00
 4.3652e-07 3.0859e-06
 5.2481e-07 6.9696e-06
 6.3096e-07 3.6974e-05
 7.5858e-07 1.1098e-05
 9.1201e-07 4.2385e-05
 1.0965e-06 7.3401e-05
 1.3183e-06 1.3772e-04
 1.5849e-06 2.5216e-04
 1.9055e-06 4.4619e-04
 2.2909e-06 7.4487e-04
 2.7542e-06 1.3601e-03
 3.3113e-06 2.2152e-03
 3.9811e-06 3.6415e-03
 4.7863e-06 5.7922e-03
 5.7544e-06 8.5591e-03
 6.9183e-06 1.2473e-02
 8.3176e-06 1.7163e-02
 1.0000e-05 2.1784e-02
 1.2023e-05 2.6153e-02
 1.4454e-05 2.9905e-02
 1.7378e-05 3.2392e-02
 2.0893e-05 3.3571e-02
 2.5119e-05 3.3728e-02
 3.0200e-05 3.2564e-02
 3.6308e-05 3.1047e-02
 4.3652e-05 3.0403e-02
 5.2481e-05 2.9402e-02
 6.3096e-05 2.7011e-02
 7.5858e-05 2.4889e-02
 9.1201e-05 2.3887e-02
 1.0965e-04 2.4415e-02
 1.3183e-04 2.2720e-02
 1.5849e-04 2.1642e-02
 1.9055e-04 1.9395e-02
 2.2909e-04 1.9052e-02
 2.7542e-04 1.6629e-02
 3.3113e-04 1.5913e-02
 3.9811e-04 1.4825e-02
 4.7863e-04 1.4681e-02
 5.7544e-04 1.2663e-02
 6.9183e-04 1.0545e-02
 8.3176e-04 8.7778e-03
 1.0000e-03 8.0699e-03
 1.2023e-03 6.3506e-03
 1.4454e-03 4.3281e-03
 1.7378e-03 2.3252e-03
 2.0893e-03 1.0510e-03
 2.5119e-03 2.0361e-03
 3.0200e-03 1.5111e-04
 3.6308e-03 0.0000e+00
 4.3652e-03 0.0000e+00
 5.2481e-03 0.0000e+00
 6.3096e-03 0.0000e+00
 7.5858e-03 0.0000e+00
 9.1201e-03 0.0000e+00
