 1.0965e-10 0.0000e+00
 1.3183e-10 0.0000e+00
 1.5849e-10 0.0000e+00
 1.9055e-10 0.0000e+00
 2.2909e-10 0.0000e+00
 2.7542e-10 0.0000e+00
 3.3113e-10 0.0000e+00
 3.9811e-10 0.0000e+00
 4.7863e-10 0.0000e+00
 5.7544e-10 0.0000e+00
 6.9183e-10 0.0000e+00
 8.3176e-10 0.0000e+00
 1.0000e-09 0.0000e+00
 1.2023e-09 0.0000e+00
 1.4454e-09 0.0000e+00
 1.7378e-09 0.0000e+00
 2.0893e-09 0.0000e+00
 2.5119e-09 0.0000e+00
 3.0200e-09 0.0000e+00
 3.6308e-09 0.0000e+00
 4.3652e-09 0.0000e+00
 5.2481e-09 0.0000e+00
 6.3096e-09 0.0000e+00
 7.5858e-09 0.0000e+00
 9.1201e-09 0.0000e+00
 1.0965e-08 0.0000e+00
 1.3183e-08 0.0000e+00
 1.5849e-08 0.0000e+00
 1.9055e-08 0.0000e+00
 2.2909e-08 0.0000e+00
 2.7542e-08 0.0000e+00
 3.3113e-08 0.0000e+00
 3.9811e-08 0.0000e+00
 4.7863e-08 0.0000e+00
 5.7544e-08 0.0000e+00
 6.9183e-08 0.0000e+00
 8.3176e-08 0.0000e+00
 1.0000e-07 0.0000e+00
 1.2023e-07 0.0000e+00
 1.4454e-07 0.0000e+00
 1.7378e-07 0.0000e+00
 2.0893e-07 0.0000e+00
 2.5119e-07 0.0000e+00
 3.0200e-07 0.0000e+00
 3.6308e-07 2.6868e-06
 4.3652e-07 0.0000e+00
 5.2481e-07 0.0000e+00
 6.3096e-07 2.4681e-06
 7.5858e-07 0.0000e+00
 9.1201e-07 5.1867e-06
 1.0965e-06 0.0000e+00
 1.3183e-06 2.3057e-06
 1.5849e-06 3.2946e-06
 1.9055e-06 3.6543e-06
 2.2909e-06 0.0000e+00
 2.7542e-06 5.3666e-06
 3.3113e-06 1.0911e-05
 3.9811e-06 1.2277e-05
 4.7863e-06 1.2437e-05
 5.7544e-06 1.3119e-05
 6.9183e-06 2.6178e-05
 8.3176e-06 6.6683e-05
 1.0000e-05 1.3984e-04
 1.2023e-05 2.5341e-04
 1.4454e-05 5.0743e-04
 1.7378e-05 8.5172e-04
 2.0893e-05 1.4966e-03
 2.5119e-05 2.6949e-03
 3.0200e-05 4.7195e-03
 3.6308e-05 7.9209e-03
 4.3652e-05 1.3336e-02
 5.2481e-05 2.0674e-02
 6.3096e-05 3.1310e-02
 7.5858e-05 4.3852e-02
 9.1201e-05 5.7867e-02
 1.0965e-04 7.3754e-02
 1.3183e-04 8.6248e-02
 1.5849e-04 9.6578e-02
 1.9055e-04 1.0026e-01
 2.2909e-04 9.8662e-02
 2.7542e-04 9.3116e-02
 3.3113e-04 8.3496e-02
 3.9811e-04 7.4463e-02
 4.7863e-04 6.3321e-02
 5.7544e-04 5.5849e-02
 6.9183e-04 4.6241e-02
 8.3176e-04 3.8095e-02
 1.0000e-03 3.1947e-02
 1.2023e-03 2.4585e-02
 1.4454e-03 1.7521e-02
 1.7378e-03 1.1484e-02
 2.0893e-03 8.0559e-03
 2.5119e-03 4.2680e-03
 3.0200e-03 1.6983e-03
 3.6308e-03 3.6744e-04
 4.3652e-03 1.7258e-04
 5.2481e-03 6.0313e-05
 6.3096e-03 0.0000e+00
 7.5858e-03 0.0000e+00
 9.1201e-03 0.0000e+00
